{
  "test": {
    "PORT": 3000,
    "MONGODB_URI": "mongodb://localhost:27017/advocateTest",
    "JWT_SECRET": "psoli12%$34ndhbhb"
  },
  "development": {
    "PORT": 3000,
    "MONGODB_URI": "mongodb://heroku_9sv2vmp9:vatod3u1v88l73digv4ts1c2h@ds161255.mlab.com:61255/heroku_9sv2vmp9",
    "JWT_SECRET": "nvhf@#i1234ndhbhb"
  }
}
